{
  "totalHits": 1,
  "hits": [
    {
      "previewHeight": 150,
      "likes": 1,
      "favorites": 1,
      "tags": "mussels, spagetthi, italian food",
      "webformatHeight": 640,
      "views": 376,
      "webformatWidth": 640,
      "previewWidth": 150,
      "comments": 0,
      "downloads": 103,
      "pageURL": "https://pixabay.com/en/mussels-spagetthi-italian-food-753908/",
      "previewURL": "https://pixabay.com/static/uploads/photo/2015/05/05/15/21/mussels-753908_150.jpg",
      "webformatURL": "https://pixabay.com/get/ee30b20628fc1c2ad65a5854e44f4190e074e7c818b5174096f1c47da3ef_640.jpg",
      "imageWidth": 1936,
      "user_id": 996808,
      "user": "jae_ch9",
      "type": "photo",
      "id": 753908,
      "userImageURL": "https://pixabay.com/static/uploads/user/2015/05/05/15-12-46-512_250x250.jpg",
      "imageHeight": 1936
    }
  ],
  "total": 1
}